[{"Id":1,"CustomerName":"Dalila","TotalAmount":784021},
{"Id":2,"CustomerName":"Phyllida","TotalAmount":402762},
{"Id":3,"CustomerName":"Florenza","TotalAmount":90631},
{"Id":4,"CustomerName":"Pepi","TotalAmount":405722},
{"Id":5,"CustomerName":"Lotte","TotalAmount":80276},
{"Id":6,"CustomerName":"Salvador","TotalAmount":607670},
{"Id":7,"CustomerName":"Sky","TotalAmount":964971},
{"Id":8,"CustomerName":"Nettle","TotalAmount":189788},
{"Id":9,"CustomerName":"Osbourn","TotalAmount":655955},
{"Id":10,"CustomerName":"Myrtia","TotalAmount":532736},
{"Id":11,"CustomerName":"Krispin","TotalAmount":144932},
{"Id":12,"CustomerName":"Judith","TotalAmount":382640},
{"Id":13,"CustomerName":"Fern","TotalAmount":865647},
{"Id":14,"CustomerName":"Codie","TotalAmount":715021},
{"Id":15,"CustomerName":"Timothea","TotalAmount":620693},
{"Id":16,"CustomerName":"Michel","TotalAmount":107324},
{"Id":17,"CustomerName":"Anissa","TotalAmount":868829},
{"Id":18,"CustomerName":"Aurea","TotalAmount":902095},
{"Id":19,"CustomerName":"Shani","TotalAmount":233380},
{"Id":20,"CustomerName":"Beckie","TotalAmount":48754},
{"Id":21,"CustomerName":"Vladamir","TotalAmount":396518},
{"Id":22,"CustomerName":"Nancee","TotalAmount":639718},
{"Id":23,"CustomerName":"Clareta","TotalAmount":453393},
{"Id":24,"CustomerName":"Ganny","TotalAmount":892262},
{"Id":25,"CustomerName":"Sondra","TotalAmount":254004},
{"Id":26,"CustomerName":"Libbi","TotalAmount":816292},
{"Id":27,"CustomerName":"Adda","TotalAmount":199753},
{"Id":28,"CustomerName":"Alisa","TotalAmount":367183},
{"Id":29,"CustomerName":"Binnie","TotalAmount":462970},
{"Id":30,"CustomerName":"Alfonse","TotalAmount":984695},
{"Id":31,"CustomerName":"Libby","TotalAmount":369630},
{"Id":32,"CustomerName":"Vallie","TotalAmount":212063},
{"Id":33,"CustomerName":"Zarla","TotalAmount":554585},
{"Id":34,"CustomerName":"Westleigh","TotalAmount":406277},
{"Id":35,"CustomerName":"Raddy","TotalAmount":683673},
{"Id":36,"CustomerName":"Delcine","TotalAmount":412621},
{"Id":37,"CustomerName":"Doralia","TotalAmount":774157},
{"Id":38,"CustomerName":"Bordy","TotalAmount":427663},
{"Id":39,"CustomerName":"Kaela","TotalAmount":26993},
{"Id":40,"CustomerName":"Shannah","TotalAmount":902727},
{"Id":41,"CustomerName":"Thomasa","TotalAmount":679379},
{"Id":42,"CustomerName":"Marsh","TotalAmount":273054},
{"Id":43,"CustomerName":"Angelia","TotalAmount":79878},
{"Id":44,"CustomerName":"Terri","TotalAmount":378974},
{"Id":45,"CustomerName":"Amy","TotalAmount":789930},
{"Id":46,"CustomerName":"Willard","TotalAmount":887705},
{"Id":47,"CustomerName":"Celestyna","TotalAmount":457112},
{"Id":48,"CustomerName":"Karin","TotalAmount":296241},
{"Id":49,"CustomerName":"Hashim","TotalAmount":489519},
{"Id":50,"CustomerName":"Troy","TotalAmount":598582},
{"Id":51,"CustomerName":"Jorrie","TotalAmount":17426},
{"Id":52,"CustomerName":"Erick","TotalAmount":350896},
{"Id":53,"CustomerName":"Tiertza","TotalAmount":771769},
{"Id":54,"CustomerName":"Karia","TotalAmount":977320},
{"Id":55,"CustomerName":"Mahmud","TotalAmount":28207},
{"Id":56,"CustomerName":"Gauthier","TotalAmount":596012},
{"Id":57,"CustomerName":"Tony","TotalAmount":832512},
{"Id":58,"CustomerName":"Tiertza","TotalAmount":89177},
{"Id":59,"CustomerName":"Fredia","TotalAmount":298009},
{"Id":60,"CustomerName":"Reinold","TotalAmount":704747},
{"Id":61,"CustomerName":"Belita","TotalAmount":114905},
{"Id":62,"CustomerName":"Kelvin","TotalAmount":972179},
{"Id":63,"CustomerName":"Happy","TotalAmount":319269},
{"Id":64,"CustomerName":"Kermie","TotalAmount":860656},
{"Id":65,"CustomerName":"Erica","TotalAmount":927057},
{"Id":66,"CustomerName":"Isa","TotalAmount":41207},
{"Id":67,"CustomerName":"Silvan","TotalAmount":851019},
{"Id":68,"CustomerName":"Fredra","TotalAmount":653114},
{"Id":69,"CustomerName":"Lloyd","TotalAmount":26798},
{"Id":70,"CustomerName":"Charyl","TotalAmount":638300},
{"Id":71,"CustomerName":"Gallagher","TotalAmount":672309},
{"Id":72,"CustomerName":"Nels","TotalAmount":197731},
{"Id":73,"CustomerName":"Elora","TotalAmount":542802},
{"Id":74,"CustomerName":"Clayson","TotalAmount":955769},
{"Id":75,"CustomerName":"Wheeler","TotalAmount":76983},
{"Id":76,"CustomerName":"Susie","TotalAmount":559322},
{"Id":77,"CustomerName":"Carma","TotalAmount":664736},
{"Id":78,"CustomerName":"Abbie","TotalAmount":609764},
{"Id":79,"CustomerName":"Avrit","TotalAmount":614003},
{"Id":80,"CustomerName":"Anet","TotalAmount":732552},
{"Id":81,"CustomerName":"Tremaine","TotalAmount":279511},
{"Id":82,"CustomerName":"Seline","TotalAmount":928235},
{"Id":83,"CustomerName":"Estelle","TotalAmount":486579},
{"Id":84,"CustomerName":"Mab","TotalAmount":551859},
{"Id":85,"CustomerName":"Winny","TotalAmount":358762},
{"Id":86,"CustomerName":"Darla","TotalAmount":558773},
{"Id":87,"CustomerName":"Ambrosio","TotalAmount":452597},
{"Id":88,"CustomerName":"Everett","TotalAmount":793001},
{"Id":89,"CustomerName":"Aggi","TotalAmount":720732},
{"Id":90,"CustomerName":"Megan","TotalAmount":615818},
{"Id":91,"CustomerName":"Robbin","TotalAmount":41737},
{"Id":92,"CustomerName":"Mildred","TotalAmount":141622},
{"Id":93,"CustomerName":"Helene","TotalAmount":43849},
{"Id":94,"CustomerName":"Benny","TotalAmount":947245},
{"Id":95,"CustomerName":"Marleen","TotalAmount":668468},
{"Id":96,"CustomerName":"Stanislaus","TotalAmount":690076},
{"Id":97,"CustomerName":"Irving","TotalAmount":707509},
{"Id":98,"CustomerName":"Waneta","TotalAmount":940460},
{"Id":99,"CustomerName":"Knox","TotalAmount":985830},
{"Id":100,"CustomerName":"Ivan","TotalAmount":394703},
{"Id":101,"CustomerName":"Blanch","TotalAmount":569267},
{"Id":102,"CustomerName":"Addy","TotalAmount":105814},
{"Id":103,"CustomerName":"Gayleen","TotalAmount":66745},
{"Id":104,"CustomerName":"Allyce","TotalAmount":842542},
{"Id":105,"CustomerName":"Penn","TotalAmount":828755},
{"Id":106,"CustomerName":"Clo","TotalAmount":769194},
{"Id":107,"CustomerName":"Cletus","TotalAmount":449435},
{"Id":108,"CustomerName":"Martie","TotalAmount":194323},
{"Id":109,"CustomerName":"Rollins","TotalAmount":838527},
{"Id":110,"CustomerName":"Abby","TotalAmount":370321},
{"Id":111,"CustomerName":"Georas","TotalAmount":891866},
{"Id":112,"CustomerName":"Ginnie","TotalAmount":549235},
{"Id":113,"CustomerName":"Yasmeen","TotalAmount":218093},
{"Id":114,"CustomerName":"Sawyere","TotalAmount":52084},
{"Id":115,"CustomerName":"Vernor","TotalAmount":215656},
{"Id":116,"CustomerName":"Dov","TotalAmount":72522},
{"Id":117,"CustomerName":"Stevy","TotalAmount":772152},
{"Id":118,"CustomerName":"Carlen","TotalAmount":279229},
{"Id":119,"CustomerName":"Ezra","TotalAmount":945890},
{"Id":120,"CustomerName":"Cozmo","TotalAmount":228847},
{"Id":121,"CustomerName":"Jade","TotalAmount":637414},
{"Id":122,"CustomerName":"Gwenneth","TotalAmount":244627},
{"Id":123,"CustomerName":"Nita","TotalAmount":464489},
{"Id":124,"CustomerName":"Hortense","TotalAmount":911786},
{"Id":125,"CustomerName":"Mal","TotalAmount":595636},
{"Id":126,"CustomerName":"Lainey","TotalAmount":452530},
{"Id":127,"CustomerName":"Mickie","TotalAmount":159776},
{"Id":128,"CustomerName":"Oswell","TotalAmount":939284},
{"Id":129,"CustomerName":"Terencio","TotalAmount":729119},
{"Id":130,"CustomerName":"Demetra","TotalAmount":333868},
{"Id":131,"CustomerName":"Gloriana","TotalAmount":806633},
{"Id":132,"CustomerName":"Elora","TotalAmount":747415},
{"Id":133,"CustomerName":"Johnath","TotalAmount":361886},
{"Id":134,"CustomerName":"Reinald","TotalAmount":443842},
{"Id":135,"CustomerName":"Trista","TotalAmount":907047},
{"Id":136,"CustomerName":"Mellisent","TotalAmount":252927},
{"Id":137,"CustomerName":"Onfre","TotalAmount":449494},
{"Id":138,"CustomerName":"Sarette","TotalAmount":359943},
{"Id":139,"CustomerName":"Gibb","TotalAmount":940982},
{"Id":140,"CustomerName":"Johnathan","TotalAmount":756263},
{"Id":141,"CustomerName":"Pauline","TotalAmount":451481},
{"Id":142,"CustomerName":"Eldin","TotalAmount":177836},
{"Id":143,"CustomerName":"Ricki","TotalAmount":137583},
{"Id":144,"CustomerName":"Aurthur","TotalAmount":130654},
{"Id":145,"CustomerName":"Dalenna","TotalAmount":787677},
{"Id":146,"CustomerName":"Cozmo","TotalAmount":293245},
{"Id":147,"CustomerName":"Allan","TotalAmount":901719},
{"Id":148,"CustomerName":"Harper","TotalAmount":455353},
{"Id":149,"CustomerName":"Rosemonde","TotalAmount":642234},
{"Id":150,"CustomerName":"Trefor","TotalAmount":285007},
{"Id":151,"CustomerName":"Hesther","TotalAmount":454709},
{"Id":152,"CustomerName":"Stephie","TotalAmount":525787},
{"Id":153,"CustomerName":"Candace","TotalAmount":994221},
{"Id":154,"CustomerName":"Caritta","TotalAmount":405431},
{"Id":155,"CustomerName":"Schuyler","TotalAmount":791989},
{"Id":156,"CustomerName":"Lacey","TotalAmount":375988},
{"Id":157,"CustomerName":"Allina","TotalAmount":432456},
{"Id":158,"CustomerName":"Yuma","TotalAmount":593890},
{"Id":159,"CustomerName":"Naomi","TotalAmount":329547},
{"Id":160,"CustomerName":"Rahel","TotalAmount":496684},
{"Id":161,"CustomerName":"Dot","TotalAmount":150255},
{"Id":162,"CustomerName":"Olly","TotalAmount":961327},
{"Id":163,"CustomerName":"Cyrus","TotalAmount":661555},
{"Id":164,"CustomerName":"Gail","TotalAmount":795032},
{"Id":165,"CustomerName":"Beltran","TotalAmount":141168},
{"Id":166,"CustomerName":"Lauren","TotalAmount":497500},
{"Id":167,"CustomerName":"Bertrando","TotalAmount":277015},
{"Id":168,"CustomerName":"Ivonne","TotalAmount":904894},
{"Id":169,"CustomerName":"Hanny","TotalAmount":306989},
{"Id":170,"CustomerName":"Iseabal","TotalAmount":306340},
{"Id":171,"CustomerName":"Marena","TotalAmount":234243},
{"Id":172,"CustomerName":"Gannon","TotalAmount":302720},
{"Id":173,"CustomerName":"Annadiane","TotalAmount":990103},
{"Id":174,"CustomerName":"Renell","TotalAmount":144219},
{"Id":175,"CustomerName":"Melantha","TotalAmount":836648},
{"Id":176,"CustomerName":"Benn","TotalAmount":793487},
{"Id":177,"CustomerName":"Gare","TotalAmount":283729},
{"Id":178,"CustomerName":"Lizzie","TotalAmount":183370},
{"Id":179,"CustomerName":"Maia","TotalAmount":475235},
{"Id":180,"CustomerName":"Humphrey","TotalAmount":224338},
{"Id":181,"CustomerName":"Odele","TotalAmount":486943},
{"Id":182,"CustomerName":"Collie","TotalAmount":922518},
{"Id":183,"CustomerName":"Petey","TotalAmount":181146},
{"Id":184,"CustomerName":"Alix","TotalAmount":601672},
{"Id":185,"CustomerName":"Andros","TotalAmount":141090},
{"Id":186,"CustomerName":"Lazar","TotalAmount":16422},
{"Id":187,"CustomerName":"Gibb","TotalAmount":295871},
{"Id":188,"CustomerName":"Raynor","TotalAmount":843825},
{"Id":189,"CustomerName":"Cthrine","TotalAmount":256439},
{"Id":190,"CustomerName":"Shepperd","TotalAmount":837173},
{"Id":191,"CustomerName":"Milissent","TotalAmount":415055},
{"Id":192,"CustomerName":"Hadleigh","TotalAmount":491239},
{"Id":193,"CustomerName":"Anstice","TotalAmount":228853},
{"Id":194,"CustomerName":"Naomi","TotalAmount":648563},
{"Id":195,"CustomerName":"Kaitlyn","TotalAmount":833698},
{"Id":196,"CustomerName":"Frannie","TotalAmount":402940},
{"Id":197,"CustomerName":"Jackson","TotalAmount":916509},
{"Id":198,"CustomerName":"Una","TotalAmount":328386},
{"Id":199,"CustomerName":"Miguel","TotalAmount":647802},
{"Id":200,"CustomerName":"Harmony","TotalAmount":727543},
{"Id":201,"CustomerName":"Frances","TotalAmount":308586},
{"Id":202,"CustomerName":"Charyl","TotalAmount":141080},
{"Id":203,"CustomerName":"Elysee","TotalAmount":179703},
{"Id":204,"CustomerName":"Culley","TotalAmount":702124},
{"Id":205,"CustomerName":"Cale","TotalAmount":382378},
{"Id":206,"CustomerName":"Aileen","TotalAmount":759862},
{"Id":207,"CustomerName":"Seline","TotalAmount":578816},
{"Id":208,"CustomerName":"Cordell","TotalAmount":903579},
{"Id":209,"CustomerName":"Cristionna","TotalAmount":277326},
{"Id":210,"CustomerName":"Bryanty","TotalAmount":292281},
{"Id":211,"CustomerName":"Wilow","TotalAmount":631873},
{"Id":212,"CustomerName":"Donavon","TotalAmount":715710},
{"Id":213,"CustomerName":"Sascha","TotalAmount":819491},
{"Id":214,"CustomerName":"Anastasia","TotalAmount":596987},
{"Id":215,"CustomerName":"Haley","TotalAmount":747808},
{"Id":216,"CustomerName":"Birdie","TotalAmount":81498},
{"Id":217,"CustomerName":"Evan","TotalAmount":65196},
{"Id":218,"CustomerName":"Roarke","TotalAmount":731007},
{"Id":219,"CustomerName":"Artur","TotalAmount":592388},
{"Id":220,"CustomerName":"Joly","TotalAmount":359466},
{"Id":221,"CustomerName":"Renaldo","TotalAmount":961566},
{"Id":222,"CustomerName":"Cully","TotalAmount":275928},
{"Id":223,"CustomerName":"Lindsey","TotalAmount":71693},
{"Id":224,"CustomerName":"Hal","TotalAmount":392461},
{"Id":225,"CustomerName":"Lanny","TotalAmount":861273},
{"Id":226,"CustomerName":"Betteann","TotalAmount":673177},
{"Id":227,"CustomerName":"Wright","TotalAmount":482299},
{"Id":228,"CustomerName":"Odelia","TotalAmount":571837},
{"Id":229,"CustomerName":"Harlie","TotalAmount":140862},
{"Id":230,"CustomerName":"Aurilia","TotalAmount":209446},
{"Id":231,"CustomerName":"Inglis","TotalAmount":939248},
{"Id":232,"CustomerName":"Richard","TotalAmount":356333},
{"Id":233,"CustomerName":"Else","TotalAmount":219490},
{"Id":234,"CustomerName":"Susanne","TotalAmount":313203},
{"Id":235,"CustomerName":"Anders","TotalAmount":920121},
{"Id":236,"CustomerName":"Gloria","TotalAmount":491356},
{"Id":237,"CustomerName":"Katine","TotalAmount":447284},
{"Id":238,"CustomerName":"Othelia","TotalAmount":363032},
{"Id":239,"CustomerName":"Rourke","TotalAmount":629526},
{"Id":240,"CustomerName":"Dorelia","TotalAmount":515725},
{"Id":241,"CustomerName":"Celia","TotalAmount":110108},
{"Id":242,"CustomerName":"Jacquenetta","TotalAmount":573738},
{"Id":243,"CustomerName":"Jaclyn","TotalAmount":340218},
{"Id":244,"CustomerName":"Ainslie","TotalAmount":427017},
{"Id":245,"CustomerName":"Obidiah","TotalAmount":56376},
{"Id":246,"CustomerName":"Lori","TotalAmount":21378},
{"Id":247,"CustomerName":"Tommie","TotalAmount":306424},
{"Id":248,"CustomerName":"Berget","TotalAmount":363727},
{"Id":249,"CustomerName":"Arch","TotalAmount":905126},
{"Id":250,"CustomerName":"Edlin","TotalAmount":748138},
{"Id":251,"CustomerName":"Francene","TotalAmount":921051},
{"Id":252,"CustomerName":"Kathleen","TotalAmount":641118},
{"Id":253,"CustomerName":"Cynthea","TotalAmount":793871},
{"Id":254,"CustomerName":"Reinald","TotalAmount":595354},
{"Id":255,"CustomerName":"Phylys","TotalAmount":156903},
{"Id":256,"CustomerName":"Hadrian","TotalAmount":373052},
{"Id":257,"CustomerName":"Chelsie","TotalAmount":198651},
{"Id":258,"CustomerName":"Kalina","TotalAmount":662749},
{"Id":259,"CustomerName":"Carilyn","TotalAmount":524381},
{"Id":260,"CustomerName":"Carlina","TotalAmount":701757},
{"Id":261,"CustomerName":"Emmy","TotalAmount":213847},
{"Id":262,"CustomerName":"Madelon","TotalAmount":859033},
{"Id":263,"CustomerName":"Humberto","TotalAmount":717791},
{"Id":264,"CustomerName":"Berkeley","TotalAmount":301980},
{"Id":265,"CustomerName":"Agatha","TotalAmount":173226},
{"Id":266,"CustomerName":"Lambert","TotalAmount":967745},
{"Id":267,"CustomerName":"Shellie","TotalAmount":903000},
{"Id":268,"CustomerName":"Web","TotalAmount":632390},
{"Id":269,"CustomerName":"Margarita","TotalAmount":982750},
{"Id":270,"CustomerName":"Eldin","TotalAmount":753621},
{"Id":271,"CustomerName":"Nikki","TotalAmount":132270},
{"Id":272,"CustomerName":"Merrily","TotalAmount":400365},
{"Id":273,"CustomerName":"Tessie","TotalAmount":703496},
{"Id":274,"CustomerName":"Kelly","TotalAmount":313658},
{"Id":275,"CustomerName":"Myrtia","TotalAmount":907718},
{"Id":276,"CustomerName":"Gabey","TotalAmount":561466},
{"Id":277,"CustomerName":"Joeann","TotalAmount":213006},
{"Id":278,"CustomerName":"Lorenza","TotalAmount":787628},
{"Id":279,"CustomerName":"Warde","TotalAmount":997066},
{"Id":280,"CustomerName":"Gearalt","TotalAmount":70821},
{"Id":281,"CustomerName":"Ruddie","TotalAmount":341780},
{"Id":282,"CustomerName":"Luz","TotalAmount":117196},
{"Id":283,"CustomerName":"Lionel","TotalAmount":57592},
{"Id":284,"CustomerName":"Angeline","TotalAmount":868635},
{"Id":285,"CustomerName":"Angelia","TotalAmount":758222},
{"Id":286,"CustomerName":"Towny","TotalAmount":983607},
{"Id":287,"CustomerName":"Rey","TotalAmount":878614},
{"Id":288,"CustomerName":"Daryl","TotalAmount":710203},
{"Id":289,"CustomerName":"Loise","TotalAmount":524913},
{"Id":290,"CustomerName":"Frederic","TotalAmount":460428},
{"Id":291,"CustomerName":"Bud","TotalAmount":889104},
{"Id":292,"CustomerName":"Nydia","TotalAmount":465645},
{"Id":293,"CustomerName":"Devonne","TotalAmount":962399},
{"Id":294,"CustomerName":"Normy","TotalAmount":553154},
{"Id":295,"CustomerName":"Ive","TotalAmount":403580},
{"Id":296,"CustomerName":"Jacqueline","TotalAmount":283096},
{"Id":297,"CustomerName":"Leland","TotalAmount":427054},
{"Id":298,"CustomerName":"Chilton","TotalAmount":509574},
{"Id":299,"CustomerName":"Jeffrey","TotalAmount":976645},
{"Id":300,"CustomerName":"Marijo","TotalAmount":318972},
{"Id":301,"CustomerName":"Putnem","TotalAmount":491435},
{"Id":302,"CustomerName":"Umberto","TotalAmount":267700},
{"Id":303,"CustomerName":"Viki","TotalAmount":912655},
{"Id":304,"CustomerName":"Lorant","TotalAmount":581686},
{"Id":305,"CustomerName":"Hettie","TotalAmount":562347},
{"Id":306,"CustomerName":"Harli","TotalAmount":456423},
{"Id":307,"CustomerName":"Ezmeralda","TotalAmount":431129},
{"Id":308,"CustomerName":"Roselle","TotalAmount":494621},
{"Id":309,"CustomerName":"Celestina","TotalAmount":879954},
{"Id":310,"CustomerName":"Hart","TotalAmount":604015},
{"Id":311,"CustomerName":"Arni","TotalAmount":546991},
{"Id":312,"CustomerName":"Nadean","TotalAmount":621025},
{"Id":313,"CustomerName":"Leah","TotalAmount":248141},
{"Id":314,"CustomerName":"Dominic","TotalAmount":938381},
{"Id":315,"CustomerName":"Nicola","TotalAmount":593756},
{"Id":316,"CustomerName":"Bernarr","TotalAmount":810795},
{"Id":317,"CustomerName":"Sophia","TotalAmount":308417},
{"Id":318,"CustomerName":"Ame","TotalAmount":483879},
{"Id":319,"CustomerName":"Rabi","TotalAmount":325904},
{"Id":320,"CustomerName":"Zonda","TotalAmount":78561},
{"Id":321,"CustomerName":"Dene","TotalAmount":468209},
{"Id":322,"CustomerName":"Annora","TotalAmount":671489},
{"Id":323,"CustomerName":"Erie","TotalAmount":801401},
{"Id":324,"CustomerName":"Ole","TotalAmount":860448},
{"Id":325,"CustomerName":"Hamil","TotalAmount":769479},
{"Id":326,"CustomerName":"Rouvin","TotalAmount":850154},
{"Id":327,"CustomerName":"Bertie","TotalAmount":552361},
{"Id":328,"CustomerName":"Luther","TotalAmount":416846},
{"Id":329,"CustomerName":"Thaddus","TotalAmount":872714},
{"Id":330,"CustomerName":"Grete","TotalAmount":721577},
{"Id":331,"CustomerName":"Vonnie","TotalAmount":572118},
{"Id":332,"CustomerName":"Ade","TotalAmount":466527},
{"Id":333,"CustomerName":"Burl","TotalAmount":381698},
{"Id":334,"CustomerName":"Vail","TotalAmount":939925},
{"Id":335,"CustomerName":"Odele","TotalAmount":552135},
{"Id":336,"CustomerName":"Sashenka","TotalAmount":296947},
{"Id":337,"CustomerName":"Robers","TotalAmount":412245},
{"Id":338,"CustomerName":"Grazia","TotalAmount":164647},
{"Id":339,"CustomerName":"Delila","TotalAmount":366636},
{"Id":340,"CustomerName":"Leela","TotalAmount":717191},
{"Id":341,"CustomerName":"Camala","TotalAmount":699880},
{"Id":342,"CustomerName":"Catherin","TotalAmount":338082},
{"Id":343,"CustomerName":"Artemus","TotalAmount":658322},
{"Id":344,"CustomerName":"Jess","TotalAmount":497331},
{"Id":345,"CustomerName":"Franky","TotalAmount":849553},
{"Id":346,"CustomerName":"Amby","TotalAmount":315749},
{"Id":347,"CustomerName":"Artemus","TotalAmount":479353},
{"Id":348,"CustomerName":"Tristam","TotalAmount":820586},
{"Id":349,"CustomerName":"Mallory","TotalAmount":748843},
{"Id":350,"CustomerName":"Eulalie","TotalAmount":790014},
{"Id":351,"CustomerName":"Breanne","TotalAmount":166070},
{"Id":352,"CustomerName":"Franni","TotalAmount":927274},
{"Id":353,"CustomerName":"Bernadette","TotalAmount":226506},
{"Id":354,"CustomerName":"Salvidor","TotalAmount":196703},
{"Id":355,"CustomerName":"Karlik","TotalAmount":598329},
{"Id":356,"CustomerName":"Rickie","TotalAmount":750408},
{"Id":357,"CustomerName":"Orton","TotalAmount":617754},
{"Id":358,"CustomerName":"Gerardo","TotalAmount":294204},
{"Id":359,"CustomerName":"Ber","TotalAmount":713802},
{"Id":360,"CustomerName":"Tomlin","TotalAmount":490475},
{"Id":361,"CustomerName":"Price","TotalAmount":276776},
{"Id":362,"CustomerName":"Stearn","TotalAmount":489203},
{"Id":363,"CustomerName":"Kennedy","TotalAmount":731757},
{"Id":364,"CustomerName":"Patrizius","TotalAmount":501417},
{"Id":365,"CustomerName":"Olva","TotalAmount":51115},
{"Id":366,"CustomerName":"Galen","TotalAmount":160387},
{"Id":367,"CustomerName":"Abagail","TotalAmount":777502},
{"Id":368,"CustomerName":"Fredia","TotalAmount":903700},
{"Id":369,"CustomerName":"Ange","TotalAmount":503640},
{"Id":370,"CustomerName":"Alexina","TotalAmount":457623},
{"Id":371,"CustomerName":"Tessie","TotalAmount":90128},
{"Id":372,"CustomerName":"Ole","TotalAmount":598167},
{"Id":373,"CustomerName":"Matthew","TotalAmount":702649},
{"Id":374,"CustomerName":"Benny","TotalAmount":929261},
{"Id":375,"CustomerName":"Caresa","TotalAmount":309121},
{"Id":376,"CustomerName":"Fernande","TotalAmount":884430},
{"Id":377,"CustomerName":"Elbert","TotalAmount":435402},
{"Id":378,"CustomerName":"Pia","TotalAmount":918984},
{"Id":379,"CustomerName":"Bettye","TotalAmount":408627},
{"Id":380,"CustomerName":"Desmund","TotalAmount":246399},
{"Id":381,"CustomerName":"Trever","TotalAmount":769463},
{"Id":382,"CustomerName":"Bernardine","TotalAmount":794467},
{"Id":383,"CustomerName":"Urbano","TotalAmount":162555},
{"Id":384,"CustomerName":"Carmine","TotalAmount":63951},
{"Id":385,"CustomerName":"Morty","TotalAmount":86336},
{"Id":386,"CustomerName":"Vasili","TotalAmount":335643},
{"Id":387,"CustomerName":"Frederigo","TotalAmount":727693},
{"Id":388,"CustomerName":"Amii","TotalAmount":443224},
{"Id":389,"CustomerName":"Lita","TotalAmount":121201},
{"Id":390,"CustomerName":"Micki","TotalAmount":302236},
{"Id":391,"CustomerName":"Dunstan","TotalAmount":107877},
{"Id":392,"CustomerName":"Austin","TotalAmount":938749},
{"Id":393,"CustomerName":"Sigfried","TotalAmount":200711},
{"Id":394,"CustomerName":"Jermayne","TotalAmount":532135},
{"Id":395,"CustomerName":"Rabi","TotalAmount":736763},
{"Id":396,"CustomerName":"Samaria","TotalAmount":957678},
{"Id":397,"CustomerName":"Margarette","TotalAmount":864510},
{"Id":398,"CustomerName":"Lyle","TotalAmount":919176},
{"Id":399,"CustomerName":"Bowie","TotalAmount":69139},
{"Id":400,"CustomerName":"Chrysa","TotalAmount":702441},
{"Id":401,"CustomerName":"Fletcher","TotalAmount":892941},
{"Id":402,"CustomerName":"Abagael","TotalAmount":475417},
{"Id":403,"CustomerName":"Lita","TotalAmount":929643},
{"Id":404,"CustomerName":"Kirsteni","TotalAmount":371533},
{"Id":405,"CustomerName":"Quillan","TotalAmount":657017},
{"Id":406,"CustomerName":"Shelia","TotalAmount":602597},
{"Id":407,"CustomerName":"Blisse","TotalAmount":345268},
{"Id":408,"CustomerName":"Olav","TotalAmount":205775},
{"Id":409,"CustomerName":"Ezra","TotalAmount":627881},
{"Id":410,"CustomerName":"Rock","TotalAmount":493085},
{"Id":411,"CustomerName":"Bride","TotalAmount":888180},
{"Id":412,"CustomerName":"Rose","TotalAmount":711462},
{"Id":413,"CustomerName":"Carina","TotalAmount":148487},
{"Id":414,"CustomerName":"Paige","TotalAmount":582766},
{"Id":415,"CustomerName":"Sibyl","TotalAmount":779020},
{"Id":416,"CustomerName":"Isis","TotalAmount":179340},
{"Id":417,"CustomerName":"Hortense","TotalAmount":878824},
{"Id":418,"CustomerName":"Malachi","TotalAmount":583179},
{"Id":419,"CustomerName":"Harriett","TotalAmount":520272},
{"Id":420,"CustomerName":"Ruthann","TotalAmount":391394},
{"Id":421,"CustomerName":"Royal","TotalAmount":703848},
{"Id":422,"CustomerName":"Tommy","TotalAmount":143145},
{"Id":423,"CustomerName":"Christophe","TotalAmount":696003},
{"Id":424,"CustomerName":"Angelique","TotalAmount":16791},
{"Id":425,"CustomerName":"Tressa","TotalAmount":204685},
{"Id":426,"CustomerName":"Marena","TotalAmount":59745},
{"Id":427,"CustomerName":"Eilis","TotalAmount":911432},
{"Id":428,"CustomerName":"Algernon","TotalAmount":377728},
{"Id":429,"CustomerName":"Rosita","TotalAmount":95630},
{"Id":430,"CustomerName":"Ada","TotalAmount":324536},
{"Id":431,"CustomerName":"Giorgio","TotalAmount":110857},
{"Id":432,"CustomerName":"Arleen","TotalAmount":453061},
{"Id":433,"CustomerName":"Donia","TotalAmount":731288},
{"Id":434,"CustomerName":"Ekaterina","TotalAmount":831540},
{"Id":435,"CustomerName":"Jillie","TotalAmount":713837},
{"Id":436,"CustomerName":"Kassey","TotalAmount":536204},
{"Id":437,"CustomerName":"Hildagard","TotalAmount":892384},
{"Id":438,"CustomerName":"Kristo","TotalAmount":106921},
{"Id":439,"CustomerName":"Cissiee","TotalAmount":902595},
{"Id":440,"CustomerName":"Giselle","TotalAmount":892457},
{"Id":441,"CustomerName":"Klarrisa","TotalAmount":610247},
{"Id":442,"CustomerName":"Hayward","TotalAmount":85568},
{"Id":443,"CustomerName":"Rutledge","TotalAmount":241963},
{"Id":444,"CustomerName":"Zarla","TotalAmount":656183},
{"Id":445,"CustomerName":"Lorna","TotalAmount":398232},
{"Id":446,"CustomerName":"Dory","TotalAmount":890989},
{"Id":447,"CustomerName":"Nichols","TotalAmount":799107},
{"Id":448,"CustomerName":"Livvyy","TotalAmount":476716},
{"Id":449,"CustomerName":"Ardath","TotalAmount":529599},
{"Id":450,"CustomerName":"Talia","TotalAmount":879221},
{"Id":451,"CustomerName":"Dorelia","TotalAmount":422736},
{"Id":452,"CustomerName":"Derrik","TotalAmount":422074},
{"Id":453,"CustomerName":"Rockwell","TotalAmount":307070},
{"Id":454,"CustomerName":"Simon","TotalAmount":262905},
{"Id":455,"CustomerName":"Carlyle","TotalAmount":24821},
{"Id":456,"CustomerName":"Shandeigh","TotalAmount":545711},
{"Id":457,"CustomerName":"Giorgia","TotalAmount":886408},
{"Id":458,"CustomerName":"Horatia","TotalAmount":126724},
{"Id":459,"CustomerName":"Davin","TotalAmount":604991},
{"Id":460,"CustomerName":"Roslyn","TotalAmount":701076},
{"Id":461,"CustomerName":"Stu","TotalAmount":98370},
{"Id":462,"CustomerName":"Alexa","TotalAmount":605166},
{"Id":463,"CustomerName":"Darwin","TotalAmount":689632},
{"Id":464,"CustomerName":"Guenna","TotalAmount":927374},
{"Id":465,"CustomerName":"Langsdon","TotalAmount":568149},
{"Id":466,"CustomerName":"Jaine","TotalAmount":162643},
{"Id":467,"CustomerName":"Floyd","TotalAmount":856260},
{"Id":468,"CustomerName":"Garvy","TotalAmount":205406},
{"Id":469,"CustomerName":"Vivianna","TotalAmount":172797},
{"Id":470,"CustomerName":"Jarid","TotalAmount":372683},
{"Id":471,"CustomerName":"Carrol","TotalAmount":159467},
{"Id":472,"CustomerName":"Nicki","TotalAmount":114495},
{"Id":473,"CustomerName":"Terry","TotalAmount":912447},
{"Id":474,"CustomerName":"Shela","TotalAmount":941033},
{"Id":475,"CustomerName":"Leonardo","TotalAmount":285894},
{"Id":476,"CustomerName":"Jessi","TotalAmount":328797},
{"Id":477,"CustomerName":"Allina","TotalAmount":151957},
{"Id":478,"CustomerName":"Evelin","TotalAmount":208377},
{"Id":479,"CustomerName":"Effie","TotalAmount":390658},
{"Id":480,"CustomerName":"Pattie","TotalAmount":425128},
{"Id":481,"CustomerName":"Elbert","TotalAmount":507693},
{"Id":482,"CustomerName":"Kendal","TotalAmount":341943},
{"Id":483,"CustomerName":"Tori","TotalAmount":259078},
{"Id":484,"CustomerName":"Felicia","TotalAmount":486106},
{"Id":485,"CustomerName":"Windham","TotalAmount":798795},
{"Id":486,"CustomerName":"Neale","TotalAmount":131236},
{"Id":487,"CustomerName":"Gavra","TotalAmount":316748},
{"Id":488,"CustomerName":"Dolores","TotalAmount":476814},
{"Id":489,"CustomerName":"Guthrie","TotalAmount":281703},
{"Id":490,"CustomerName":"Cayla","TotalAmount":723479},
{"Id":491,"CustomerName":"Emma","TotalAmount":504667},
{"Id":492,"CustomerName":"Luz","TotalAmount":881731},
{"Id":493,"CustomerName":"Katusha","TotalAmount":905155},
{"Id":494,"CustomerName":"Jojo","TotalAmount":580682},
{"Id":495,"CustomerName":"Phil","TotalAmount":575224},
{"Id":496,"CustomerName":"Raynor","TotalAmount":161449},
{"Id":497,"CustomerName":"Brent","TotalAmount":155554},
{"Id":498,"CustomerName":"Dorene","TotalAmount":675431},
{"Id":499,"CustomerName":"Maynard","TotalAmount":680804},
{"Id":500,"CustomerName":"Paddie","TotalAmount":412412},
{"Id":501,"CustomerName":"Andie","TotalAmount":499836},
{"Id":502,"CustomerName":"Nadia","TotalAmount":525559},
{"Id":503,"CustomerName":"Tait","TotalAmount":940252},
{"Id":504,"CustomerName":"Floyd","TotalAmount":526879},
{"Id":505,"CustomerName":"Teddy","TotalAmount":745131},
{"Id":506,"CustomerName":"Leyla","TotalAmount":948388},
{"Id":507,"CustomerName":"Gustav","TotalAmount":941818},
{"Id":508,"CustomerName":"Mead","TotalAmount":115197},
{"Id":509,"CustomerName":"Gaby","TotalAmount":54427},
{"Id":510,"CustomerName":"Israel","TotalAmount":664330},
{"Id":511,"CustomerName":"Ramonda","TotalAmount":510002},
{"Id":512,"CustomerName":"Sari","TotalAmount":223936},
{"Id":513,"CustomerName":"Laureen","TotalAmount":167423},
{"Id":514,"CustomerName":"Launce","TotalAmount":717628},
{"Id":515,"CustomerName":"Daphene","TotalAmount":358499},
{"Id":516,"CustomerName":"Keeley","TotalAmount":755996},
{"Id":517,"CustomerName":"Wynn","TotalAmount":915840},
{"Id":518,"CustomerName":"Nehemiah","TotalAmount":145999},
{"Id":519,"CustomerName":"Mervin","TotalAmount":714076},
{"Id":520,"CustomerName":"Tanitansy","TotalAmount":520385},
{"Id":521,"CustomerName":"Horton","TotalAmount":893974},
{"Id":522,"CustomerName":"Stanislas","TotalAmount":977009},
{"Id":523,"CustomerName":"Missie","TotalAmount":609533},
{"Id":524,"CustomerName":"Francene","TotalAmount":876797},
{"Id":525,"CustomerName":"Bill","TotalAmount":899917},
{"Id":526,"CustomerName":"Jonathon","TotalAmount":351033},
{"Id":527,"CustomerName":"Kiele","TotalAmount":649599},
{"Id":528,"CustomerName":"Shirl","TotalAmount":362662},
{"Id":529,"CustomerName":"Cathy","TotalAmount":715297},
{"Id":530,"CustomerName":"Nathan","TotalAmount":346201},
{"Id":531,"CustomerName":"Arden","TotalAmount":690493},
{"Id":532,"CustomerName":"Kasper","TotalAmount":936783},
{"Id":533,"CustomerName":"Garik","TotalAmount":427574},
{"Id":534,"CustomerName":"Tracee","TotalAmount":291488},
{"Id":535,"CustomerName":"Friederike","TotalAmount":801810},
{"Id":536,"CustomerName":"Wylie","TotalAmount":202924},
{"Id":537,"CustomerName":"Bernardo","TotalAmount":541338},
{"Id":538,"CustomerName":"Merwyn","TotalAmount":363382},
{"Id":539,"CustomerName":"Sergeant","TotalAmount":900613},
{"Id":540,"CustomerName":"Corrinne","TotalAmount":546904},
{"Id":541,"CustomerName":"Roze","TotalAmount":368030},
{"Id":542,"CustomerName":"Lindon","TotalAmount":201129},
{"Id":543,"CustomerName":"Alecia","TotalAmount":731658},
{"Id":544,"CustomerName":"Maegan","TotalAmount":511953},
{"Id":545,"CustomerName":"Boycey","TotalAmount":289714},
{"Id":546,"CustomerName":"Rosalinda","TotalAmount":950586},
{"Id":547,"CustomerName":"Efren","TotalAmount":895923},
{"Id":548,"CustomerName":"Barbara-anne","TotalAmount":866662},
{"Id":549,"CustomerName":"Levy","TotalAmount":528279},
{"Id":550,"CustomerName":"Caryl","TotalAmount":213840},
{"Id":551,"CustomerName":"Troy","TotalAmount":842367},
{"Id":552,"CustomerName":"Deni","TotalAmount":593351},
{"Id":553,"CustomerName":"Ronnica","TotalAmount":521538},
{"Id":554,"CustomerName":"Raymond","TotalAmount":489941},
{"Id":555,"CustomerName":"Bethina","TotalAmount":671237},
{"Id":556,"CustomerName":"Bonny","TotalAmount":161664},
{"Id":557,"CustomerName":"Alicea","TotalAmount":461328},
{"Id":558,"CustomerName":"Hillie","TotalAmount":824054},
{"Id":559,"CustomerName":"Levi","TotalAmount":466406},
{"Id":560,"CustomerName":"Sauveur","TotalAmount":25425},
{"Id":561,"CustomerName":"Gayleen","TotalAmount":634558},
{"Id":562,"CustomerName":"Ced","TotalAmount":45442},
{"Id":563,"CustomerName":"Linzy","TotalAmount":669803},
{"Id":564,"CustomerName":"Kipp","TotalAmount":592364},
{"Id":565,"CustomerName":"Clarie","TotalAmount":665323},
{"Id":566,"CustomerName":"Abbey","TotalAmount":952786},
{"Id":567,"CustomerName":"Pall","TotalAmount":152737},
{"Id":568,"CustomerName":"Melisandra","TotalAmount":816702},
{"Id":569,"CustomerName":"Alexandre","TotalAmount":399541},
{"Id":570,"CustomerName":"Kania","TotalAmount":291835},
{"Id":571,"CustomerName":"Sibella","TotalAmount":754193},
{"Id":572,"CustomerName":"Drugi","TotalAmount":260118},
{"Id":573,"CustomerName":"Adriaens","TotalAmount":161251},
{"Id":574,"CustomerName":"Gare","TotalAmount":182740},
{"Id":575,"CustomerName":"Rhianna","TotalAmount":602806},
{"Id":576,"CustomerName":"Shelba","TotalAmount":466528},
{"Id":577,"CustomerName":"Aksel","TotalAmount":226782},
{"Id":578,"CustomerName":"Bastian","TotalAmount":767187},
{"Id":579,"CustomerName":"Alexandros","TotalAmount":69420},
{"Id":580,"CustomerName":"Rubin","TotalAmount":34416},
{"Id":581,"CustomerName":"Herculie","TotalAmount":752177},
{"Id":582,"CustomerName":"Archambault","TotalAmount":206169},
{"Id":583,"CustomerName":"Wolfy","TotalAmount":747306},
{"Id":584,"CustomerName":"Clemmie","TotalAmount":483635},
{"Id":585,"CustomerName":"Elaine","TotalAmount":682863},
{"Id":586,"CustomerName":"Orly","TotalAmount":527804},
{"Id":587,"CustomerName":"Amabel","TotalAmount":610030},
{"Id":588,"CustomerName":"Linda","TotalAmount":714534},
{"Id":589,"CustomerName":"Renado","TotalAmount":223234},
{"Id":590,"CustomerName":"Reg","TotalAmount":252860},
{"Id":591,"CustomerName":"Dale","TotalAmount":680821},
{"Id":592,"CustomerName":"Nelly","TotalAmount":424708},
{"Id":593,"CustomerName":"Skipper","TotalAmount":677277},
{"Id":594,"CustomerName":"Hugo","TotalAmount":112638},
{"Id":595,"CustomerName":"Christos","TotalAmount":527850},
{"Id":596,"CustomerName":"Leigh","TotalAmount":772371},
{"Id":597,"CustomerName":"Claudius","TotalAmount":551729},
{"Id":598,"CustomerName":"Any","TotalAmount":426802},
{"Id":599,"CustomerName":"Leesa","TotalAmount":448805},
{"Id":600,"CustomerName":"Ken","TotalAmount":237714},
{"Id":601,"CustomerName":"Emmit","TotalAmount":373444},
{"Id":602,"CustomerName":"Larry","TotalAmount":284651},
{"Id":603,"CustomerName":"Hoyt","TotalAmount":816765},
{"Id":604,"CustomerName":"Alvan","TotalAmount":525233},
{"Id":605,"CustomerName":"Harman","TotalAmount":198579},
{"Id":606,"CustomerName":"Walt","TotalAmount":213376},
{"Id":607,"CustomerName":"Terencio","TotalAmount":255062},
{"Id":608,"CustomerName":"Flem","TotalAmount":743706},
{"Id":609,"CustomerName":"Christoforo","TotalAmount":864928},
{"Id":610,"CustomerName":"Anna-diane","TotalAmount":499918},
{"Id":611,"CustomerName":"Linell","TotalAmount":808754},
{"Id":612,"CustomerName":"James","TotalAmount":242009},
{"Id":613,"CustomerName":"Birdie","TotalAmount":751054},
{"Id":614,"CustomerName":"Randy","TotalAmount":417714},
{"Id":615,"CustomerName":"Gayleen","TotalAmount":628171},
{"Id":616,"CustomerName":"Trudey","TotalAmount":172160},
{"Id":617,"CustomerName":"Forrest","TotalAmount":159066},
{"Id":618,"CustomerName":"Torrie","TotalAmount":780768},
{"Id":619,"CustomerName":"Aurel","TotalAmount":971518},
{"Id":620,"CustomerName":"Thane","TotalAmount":918915},
{"Id":621,"CustomerName":"Terese","TotalAmount":384288},
{"Id":622,"CustomerName":"Jourdan","TotalAmount":843224},
{"Id":623,"CustomerName":"Lannie","TotalAmount":179741},
{"Id":624,"CustomerName":"Margo","TotalAmount":378600},
{"Id":625,"CustomerName":"Izzy","TotalAmount":558347},
{"Id":626,"CustomerName":"Rhett","TotalAmount":212816},
{"Id":627,"CustomerName":"Glenn","TotalAmount":50577},
{"Id":628,"CustomerName":"Dario","TotalAmount":168378},
{"Id":629,"CustomerName":"Claudie","TotalAmount":17715},
{"Id":630,"CustomerName":"Harmonia","TotalAmount":270321},
{"Id":631,"CustomerName":"Zackariah","TotalAmount":844944},
{"Id":632,"CustomerName":"Jaquith","TotalAmount":383928},
{"Id":633,"CustomerName":"Lotte","TotalAmount":155544},
{"Id":634,"CustomerName":"Byrann","TotalAmount":524128},
{"Id":635,"CustomerName":"Rhys","TotalAmount":183154},
{"Id":636,"CustomerName":"Agnese","TotalAmount":261160},
{"Id":637,"CustomerName":"Milton","TotalAmount":773767},
{"Id":638,"CustomerName":"Wald","TotalAmount":36875},
{"Id":639,"CustomerName":"Kristian","TotalAmount":675571},
{"Id":640,"CustomerName":"Iolande","TotalAmount":120888},
{"Id":641,"CustomerName":"Karlen","TotalAmount":82617},
{"Id":642,"CustomerName":"Lindi","TotalAmount":240141},
{"Id":643,"CustomerName":"Griff","TotalAmount":584590},
{"Id":644,"CustomerName":"Nelie","TotalAmount":893635},
{"Id":645,"CustomerName":"Fowler","TotalAmount":606726},
{"Id":646,"CustomerName":"Lizzie","TotalAmount":314019},
{"Id":647,"CustomerName":"Skylar","TotalAmount":632319},
{"Id":648,"CustomerName":"Abbe","TotalAmount":324241},
{"Id":649,"CustomerName":"Leanor","TotalAmount":968698},
{"Id":650,"CustomerName":"Susannah","TotalAmount":425999},
{"Id":651,"CustomerName":"Riobard","TotalAmount":86370},
{"Id":652,"CustomerName":"Kingsley","TotalAmount":434883},
{"Id":653,"CustomerName":"Llywellyn","TotalAmount":350502},
{"Id":654,"CustomerName":"Jaclyn","TotalAmount":23958},
{"Id":655,"CustomerName":"Min","TotalAmount":57403},
{"Id":656,"CustomerName":"Benny","TotalAmount":647838},
{"Id":657,"CustomerName":"Inesita","TotalAmount":832422},
{"Id":658,"CustomerName":"Tallia","TotalAmount":79607},
{"Id":659,"CustomerName":"Roselia","TotalAmount":300341},
{"Id":660,"CustomerName":"Nat","TotalAmount":879512},
{"Id":661,"CustomerName":"Devina","TotalAmount":704858},
{"Id":662,"CustomerName":"Jeremias","TotalAmount":383754},
{"Id":663,"CustomerName":"Nina","TotalAmount":400848},
{"Id":664,"CustomerName":"Sonny","TotalAmount":862490},
{"Id":665,"CustomerName":"Cristabel","TotalAmount":500102},
{"Id":666,"CustomerName":"Sidnee","TotalAmount":768774},
{"Id":667,"CustomerName":"Angil","TotalAmount":546135},
{"Id":668,"CustomerName":"Lotte","TotalAmount":392410},
{"Id":669,"CustomerName":"Claudine","TotalAmount":228163},
{"Id":670,"CustomerName":"Alys","TotalAmount":68784},
{"Id":671,"CustomerName":"Tobye","TotalAmount":897667},
{"Id":672,"CustomerName":"Banky","TotalAmount":90383},
{"Id":673,"CustomerName":"Ceil","TotalAmount":878959},
{"Id":674,"CustomerName":"Alethea","TotalAmount":473757},
{"Id":675,"CustomerName":"Georgianna","TotalAmount":459875},
{"Id":676,"CustomerName":"Dewey","TotalAmount":503523},
{"Id":677,"CustomerName":"Berenice","TotalAmount":858592},
{"Id":678,"CustomerName":"Sumner","TotalAmount":374757},
{"Id":679,"CustomerName":"Kelbee","TotalAmount":804202},
{"Id":680,"CustomerName":"Dorella","TotalAmount":123745},
{"Id":681,"CustomerName":"Rolfe","TotalAmount":36591},
{"Id":682,"CustomerName":"Merrili","TotalAmount":491548},
{"Id":683,"CustomerName":"Vera","TotalAmount":455610},
{"Id":684,"CustomerName":"Robby","TotalAmount":831506},
{"Id":685,"CustomerName":"Hashim","TotalAmount":605558},
{"Id":686,"CustomerName":"Barrie","TotalAmount":930705},
{"Id":687,"CustomerName":"Ranna","TotalAmount":524137},
{"Id":688,"CustomerName":"Gwennie","TotalAmount":240504},
{"Id":689,"CustomerName":"Frederick","TotalAmount":700023},
{"Id":690,"CustomerName":"Delia","TotalAmount":109038},
{"Id":691,"CustomerName":"Robbin","TotalAmount":213161},
{"Id":692,"CustomerName":"Cybill","TotalAmount":623061},
{"Id":693,"CustomerName":"Marcela","TotalAmount":105073},
{"Id":694,"CustomerName":"Ross","TotalAmount":399015},
{"Id":695,"CustomerName":"Ambros","TotalAmount":428802},
{"Id":696,"CustomerName":"Jacinthe","TotalAmount":246265},
{"Id":697,"CustomerName":"Garnet","TotalAmount":937816},
{"Id":698,"CustomerName":"Melissa","TotalAmount":881588},
{"Id":699,"CustomerName":"Drusilla","TotalAmount":881902},
{"Id":700,"CustomerName":"Ulrike","TotalAmount":957434},
{"Id":701,"CustomerName":"Heloise","TotalAmount":800623},
{"Id":702,"CustomerName":"Jackquelin","TotalAmount":545106},
{"Id":703,"CustomerName":"Simeon","TotalAmount":272886},
{"Id":704,"CustomerName":"Sosanna","TotalAmount":642253},
{"Id":705,"CustomerName":"Berny","TotalAmount":752922},
{"Id":706,"CustomerName":"Penny","TotalAmount":139237},
{"Id":707,"CustomerName":"Wylma","TotalAmount":73855},
{"Id":708,"CustomerName":"Willow","TotalAmount":143394},
{"Id":709,"CustomerName":"Morena","TotalAmount":906263},
{"Id":710,"CustomerName":"Jojo","TotalAmount":619754},
{"Id":711,"CustomerName":"Deloria","TotalAmount":685754},
{"Id":712,"CustomerName":"Aubine","TotalAmount":291162},
{"Id":713,"CustomerName":"Ethelin","TotalAmount":796523},
{"Id":714,"CustomerName":"Alvan","TotalAmount":392237},
{"Id":715,"CustomerName":"Forester","TotalAmount":73066},
{"Id":716,"CustomerName":"Arte","TotalAmount":508457},
{"Id":717,"CustomerName":"Collen","TotalAmount":775484},
{"Id":718,"CustomerName":"Melicent","TotalAmount":615946},
{"Id":719,"CustomerName":"Jillian","TotalAmount":333395},
{"Id":720,"CustomerName":"Elle","TotalAmount":263313},
{"Id":721,"CustomerName":"Adey","TotalAmount":115361},
{"Id":722,"CustomerName":"Helsa","TotalAmount":806135},
{"Id":723,"CustomerName":"Gilberte","TotalAmount":169050},
{"Id":724,"CustomerName":"Katherina","TotalAmount":740423},
{"Id":725,"CustomerName":"Crosby","TotalAmount":977656},
{"Id":726,"CustomerName":"Beilul","TotalAmount":949447},
{"Id":727,"CustomerName":"Shanna","TotalAmount":88202},
{"Id":728,"CustomerName":"Reiko","TotalAmount":591655},
{"Id":729,"CustomerName":"Mandie","TotalAmount":561770},
{"Id":730,"CustomerName":"Gretchen","TotalAmount":933521},
{"Id":731,"CustomerName":"Lola","TotalAmount":159583},
{"Id":732,"CustomerName":"Ogdan","TotalAmount":840476},
{"Id":733,"CustomerName":"Ruben","TotalAmount":769230},
{"Id":734,"CustomerName":"Pansie","TotalAmount":854274},
{"Id":735,"CustomerName":"Jodie","TotalAmount":762888},
{"Id":736,"CustomerName":"Pete","TotalAmount":574247},
{"Id":737,"CustomerName":"Nanette","TotalAmount":294416},
{"Id":738,"CustomerName":"Jannel","TotalAmount":210576},
{"Id":739,"CustomerName":"Torrie","TotalAmount":881382},
{"Id":740,"CustomerName":"Kari","TotalAmount":636054},
{"Id":741,"CustomerName":"Halette","TotalAmount":799427},
{"Id":742,"CustomerName":"Renate","TotalAmount":630513},
{"Id":743,"CustomerName":"Alyssa","TotalAmount":805574},
{"Id":744,"CustomerName":"Winona","TotalAmount":114813},
{"Id":745,"CustomerName":"Kania","TotalAmount":673279},
{"Id":746,"CustomerName":"Nickolas","TotalAmount":364021},
{"Id":747,"CustomerName":"Siffre","TotalAmount":135123},
{"Id":748,"CustomerName":"Koo","TotalAmount":711580},
{"Id":749,"CustomerName":"Justus","TotalAmount":81458},
{"Id":750,"CustomerName":"Kelby","TotalAmount":497687},
{"Id":751,"CustomerName":"Guendolen","TotalAmount":709436},
{"Id":752,"CustomerName":"Talia","TotalAmount":869185},
{"Id":753,"CustomerName":"Leif","TotalAmount":116185},
{"Id":754,"CustomerName":"Denny","TotalAmount":790046},
{"Id":755,"CustomerName":"Misha","TotalAmount":935788},
{"Id":756,"CustomerName":"Celinda","TotalAmount":795031},
{"Id":757,"CustomerName":"Osgood","TotalAmount":498251},
{"Id":758,"CustomerName":"Daniele","TotalAmount":822393},
{"Id":759,"CustomerName":"Davine","TotalAmount":403922},
{"Id":760,"CustomerName":"Rozina","TotalAmount":287604},
{"Id":761,"CustomerName":"Elsi","TotalAmount":991993},
{"Id":762,"CustomerName":"Robers","TotalAmount":624782},
{"Id":763,"CustomerName":"Launce","TotalAmount":912187},
{"Id":764,"CustomerName":"Stevy","TotalAmount":416201},
{"Id":765,"CustomerName":"Tann","TotalAmount":88578},
{"Id":766,"CustomerName":"Langston","TotalAmount":547389},
{"Id":767,"CustomerName":"Licha","TotalAmount":283170},
{"Id":768,"CustomerName":"Geraldine","TotalAmount":759387},
{"Id":769,"CustomerName":"Gabbie","TotalAmount":839875},
{"Id":770,"CustomerName":"Herbert","TotalAmount":228596},
{"Id":771,"CustomerName":"Luce","TotalAmount":410067},
{"Id":772,"CustomerName":"Elle","TotalAmount":362718},
{"Id":773,"CustomerName":"Lynett","TotalAmount":746337},
{"Id":774,"CustomerName":"Glori","TotalAmount":309021},
{"Id":775,"CustomerName":"Blondelle","TotalAmount":354393},
{"Id":776,"CustomerName":"Alexandro","TotalAmount":935493},
{"Id":777,"CustomerName":"Barnaby","TotalAmount":889884},
{"Id":778,"CustomerName":"Erminie","TotalAmount":492851},
{"Id":779,"CustomerName":"Kinsley","TotalAmount":669248},
{"Id":780,"CustomerName":"Drucie","TotalAmount":597715},
{"Id":781,"CustomerName":"Lorena","TotalAmount":513830},
{"Id":782,"CustomerName":"Jarred","TotalAmount":617394},
{"Id":783,"CustomerName":"Allin","TotalAmount":915093},
{"Id":784,"CustomerName":"Wright","TotalAmount":801568},
{"Id":785,"CustomerName":"Dory","TotalAmount":554197},
{"Id":786,"CustomerName":"Tessa","TotalAmount":623128},
{"Id":787,"CustomerName":"Gretna","TotalAmount":785511},
{"Id":788,"CustomerName":"Devonna","TotalAmount":260791},
{"Id":789,"CustomerName":"Odelle","TotalAmount":491011},
{"Id":790,"CustomerName":"Barrie","TotalAmount":710075},
{"Id":791,"CustomerName":"Karia","TotalAmount":531564},
{"Id":792,"CustomerName":"Martin","TotalAmount":770684},
{"Id":793,"CustomerName":"Mateo","TotalAmount":748754},
{"Id":794,"CustomerName":"Aundrea","TotalAmount":271817},
{"Id":795,"CustomerName":"Nick","TotalAmount":385783},
{"Id":796,"CustomerName":"Nesta","TotalAmount":845353},
{"Id":797,"CustomerName":"Brietta","TotalAmount":991443},
{"Id":798,"CustomerName":"Hashim","TotalAmount":91676},
{"Id":799,"CustomerName":"Nannette","TotalAmount":221156},
{"Id":800,"CustomerName":"Bobbie","TotalAmount":799369},
{"Id":801,"CustomerName":"Christy","TotalAmount":860574},
{"Id":802,"CustomerName":"Ardeen","TotalAmount":684965},
{"Id":803,"CustomerName":"Louisa","TotalAmount":380249},
{"Id":804,"CustomerName":"June","TotalAmount":371293},
{"Id":805,"CustomerName":"Stesha","TotalAmount":738046},
{"Id":806,"CustomerName":"Rica","TotalAmount":243988},
{"Id":807,"CustomerName":"Nissie","TotalAmount":455537},
{"Id":808,"CustomerName":"Sukey","TotalAmount":90779},
{"Id":809,"CustomerName":"Cordula","TotalAmount":782447},
{"Id":810,"CustomerName":"Rozele","TotalAmount":500591},
{"Id":811,"CustomerName":"Robin","TotalAmount":392696},
{"Id":812,"CustomerName":"Emelda","TotalAmount":48405},
{"Id":813,"CustomerName":"Ogdan","TotalAmount":770709},
{"Id":814,"CustomerName":"Bryn","TotalAmount":104019},
{"Id":815,"CustomerName":"Winifield","TotalAmount":404461},
{"Id":816,"CustomerName":"Abramo","TotalAmount":281303},
{"Id":817,"CustomerName":"Betsy","TotalAmount":777576},
{"Id":818,"CustomerName":"Rebe","TotalAmount":279898},
{"Id":819,"CustomerName":"Scarlett","TotalAmount":335226},
{"Id":820,"CustomerName":"Dorie","TotalAmount":331062},
{"Id":821,"CustomerName":"El","TotalAmount":537688},
{"Id":822,"CustomerName":"Nettle","TotalAmount":155742},
{"Id":823,"CustomerName":"Vania","TotalAmount":978338},
{"Id":824,"CustomerName":"Monte","TotalAmount":189440},
{"Id":825,"CustomerName":"Marcy","TotalAmount":846028},
{"Id":826,"CustomerName":"Cyrill","TotalAmount":784074},
{"Id":827,"CustomerName":"Randolph","TotalAmount":726378},
{"Id":828,"CustomerName":"Franklyn","TotalAmount":873643},
{"Id":829,"CustomerName":"Louise","TotalAmount":63161},
{"Id":830,"CustomerName":"Maurice","TotalAmount":317206},
{"Id":831,"CustomerName":"Giovanni","TotalAmount":456348},
{"Id":832,"CustomerName":"Inglis","TotalAmount":532849},
{"Id":833,"CustomerName":"Holden","TotalAmount":293424},
{"Id":834,"CustomerName":"Lelia","TotalAmount":972598},
{"Id":835,"CustomerName":"Sarena","TotalAmount":440035},
{"Id":836,"CustomerName":"Claiborne","TotalAmount":334999},
{"Id":837,"CustomerName":"Kelsey","TotalAmount":271992},
{"Id":838,"CustomerName":"Amalee","TotalAmount":438893},
{"Id":839,"CustomerName":"Katya","TotalAmount":468814},
{"Id":840,"CustomerName":"Haily","TotalAmount":334101},
{"Id":841,"CustomerName":"Kat","TotalAmount":206143},
{"Id":842,"CustomerName":"Sascha","TotalAmount":387971},
{"Id":843,"CustomerName":"Drucy","TotalAmount":620665},
{"Id":844,"CustomerName":"Phoebe","TotalAmount":466347},
{"Id":845,"CustomerName":"Zelda","TotalAmount":333370},
{"Id":846,"CustomerName":"Kendra","TotalAmount":172989},
{"Id":847,"CustomerName":"Darleen","TotalAmount":849855},
{"Id":848,"CustomerName":"Gasper","TotalAmount":872833},
{"Id":849,"CustomerName":"Violetta","TotalAmount":215400},
{"Id":850,"CustomerName":"Gustav","TotalAmount":627449},
{"Id":851,"CustomerName":"Giovanni","TotalAmount":121176},
{"Id":852,"CustomerName":"Kaia","TotalAmount":862137},
{"Id":853,"CustomerName":"Neils","TotalAmount":700569},
{"Id":854,"CustomerName":"Pate","TotalAmount":424176},
{"Id":855,"CustomerName":"Gerrie","TotalAmount":932045},
{"Id":856,"CustomerName":"Northrup","TotalAmount":964426},
{"Id":857,"CustomerName":"Bendite","TotalAmount":172129},
{"Id":858,"CustomerName":"Price","TotalAmount":270473},
{"Id":859,"CustomerName":"Marcile","TotalAmount":375952},
{"Id":860,"CustomerName":"Kaleb","TotalAmount":483871},
{"Id":861,"CustomerName":"Linus","TotalAmount":73760},
{"Id":862,"CustomerName":"Nickie","TotalAmount":997324},
{"Id":863,"CustomerName":"Jermaine","TotalAmount":926327},
{"Id":864,"CustomerName":"Cindy","TotalAmount":892968},
{"Id":865,"CustomerName":"Joscelin","TotalAmount":389259},
{"Id":866,"CustomerName":"Poul","TotalAmount":725179},
{"Id":867,"CustomerName":"Louisette","TotalAmount":399235},
{"Id":868,"CustomerName":"Zola","TotalAmount":507296},
{"Id":869,"CustomerName":"Clementia","TotalAmount":364445},
{"Id":870,"CustomerName":"Orel","TotalAmount":714427},
{"Id":871,"CustomerName":"Bernard","TotalAmount":516506},
{"Id":872,"CustomerName":"Heindrick","TotalAmount":34983},
{"Id":873,"CustomerName":"Irina","TotalAmount":473336},
{"Id":874,"CustomerName":"Tove","TotalAmount":171192},
{"Id":875,"CustomerName":"Monte","TotalAmount":640074},
{"Id":876,"CustomerName":"Vin","TotalAmount":923200},
{"Id":877,"CustomerName":"Nickolaus","TotalAmount":726752},
{"Id":878,"CustomerName":"Clive","TotalAmount":806937},
{"Id":879,"CustomerName":"Dode","TotalAmount":265486},
{"Id":880,"CustomerName":"Raeann","TotalAmount":235978},
{"Id":881,"CustomerName":"Gordie","TotalAmount":680133},
{"Id":882,"CustomerName":"Tristan","TotalAmount":435630},
{"Id":883,"CustomerName":"Skipton","TotalAmount":31544},
{"Id":884,"CustomerName":"Hobey","TotalAmount":569305},
{"Id":885,"CustomerName":"Guenevere","TotalAmount":794775},
{"Id":886,"CustomerName":"Melissa","TotalAmount":482677},
{"Id":887,"CustomerName":"Pyotr","TotalAmount":778335},
{"Id":888,"CustomerName":"Reggi","TotalAmount":992390},
{"Id":889,"CustomerName":"Ram","TotalAmount":909992},
{"Id":890,"CustomerName":"Truda","TotalAmount":294804},
{"Id":891,"CustomerName":"Conchita","TotalAmount":750638},
{"Id":892,"CustomerName":"John","TotalAmount":560338},
{"Id":893,"CustomerName":"Waly","TotalAmount":867355},
{"Id":894,"CustomerName":"Annalee","TotalAmount":560217},
{"Id":895,"CustomerName":"Fredelia","TotalAmount":520979},
{"Id":896,"CustomerName":"Benyamin","TotalAmount":769404},
{"Id":897,"CustomerName":"Laurens","TotalAmount":764331},
{"Id":898,"CustomerName":"Andy","TotalAmount":706481},
{"Id":899,"CustomerName":"Larine","TotalAmount":618134},
{"Id":900,"CustomerName":"Andros","TotalAmount":18504},
{"Id":901,"CustomerName":"Shalna","TotalAmount":161534},
{"Id":902,"CustomerName":"Lelah","TotalAmount":643186},
{"Id":903,"CustomerName":"Giuditta","TotalAmount":959315},
{"Id":904,"CustomerName":"Anatole","TotalAmount":328041},
{"Id":905,"CustomerName":"Donni","TotalAmount":170758},
{"Id":906,"CustomerName":"Goldy","TotalAmount":143755},
{"Id":907,"CustomerName":"Maribel","TotalAmount":912505},
{"Id":908,"CustomerName":"Malinda","TotalAmount":385425},
{"Id":909,"CustomerName":"Abelard","TotalAmount":658447},
{"Id":910,"CustomerName":"Electra","TotalAmount":890383},
{"Id":911,"CustomerName":"Neila","TotalAmount":708431},
{"Id":912,"CustomerName":"Ernesto","TotalAmount":146418},
{"Id":913,"CustomerName":"Wainwright","TotalAmount":153220},
{"Id":914,"CustomerName":"Greer","TotalAmount":890209},
{"Id":915,"CustomerName":"Nadeen","TotalAmount":937335},
{"Id":916,"CustomerName":"Grazia","TotalAmount":45010},
{"Id":917,"CustomerName":"Britteny","TotalAmount":912678},
{"Id":918,"CustomerName":"Sandy","TotalAmount":317301},
{"Id":919,"CustomerName":"Yorgo","TotalAmount":301841},
{"Id":920,"CustomerName":"Taber","TotalAmount":858712},
{"Id":921,"CustomerName":"Meredithe","TotalAmount":98191},
{"Id":922,"CustomerName":"Phebe","TotalAmount":883845},
{"Id":923,"CustomerName":"Hildagarde","TotalAmount":534241},
{"Id":924,"CustomerName":"Egon","TotalAmount":211828},
{"Id":925,"CustomerName":"Ronica","TotalAmount":483961},
{"Id":926,"CustomerName":"Shaina","TotalAmount":17498},
{"Id":927,"CustomerName":"Broddie","TotalAmount":740106},
{"Id":928,"CustomerName":"Basil","TotalAmount":940627},
{"Id":929,"CustomerName":"Sharla","TotalAmount":388998},
{"Id":930,"CustomerName":"Myrwyn","TotalAmount":143503},
{"Id":931,"CustomerName":"Marta","TotalAmount":87783},
{"Id":932,"CustomerName":"Clyve","TotalAmount":730077},
{"Id":933,"CustomerName":"Luelle","TotalAmount":88011},
{"Id":934,"CustomerName":"Trescha","TotalAmount":538420},
{"Id":935,"CustomerName":"Niki","TotalAmount":245884},
{"Id":936,"CustomerName":"Byram","TotalAmount":884273},
{"Id":937,"CustomerName":"Viki","TotalAmount":261699},
{"Id":938,"CustomerName":"Jacky","TotalAmount":633183},
{"Id":939,"CustomerName":"Elmer","TotalAmount":626402},
{"Id":940,"CustomerName":"Josias","TotalAmount":456634},
{"Id":941,"CustomerName":"Saidee","TotalAmount":168941},
{"Id":942,"CustomerName":"Devlin","TotalAmount":182117},
{"Id":943,"CustomerName":"Jodie","TotalAmount":563549},
{"Id":944,"CustomerName":"Violet","TotalAmount":347867},
{"Id":945,"CustomerName":"Zitella","TotalAmount":160435},
{"Id":946,"CustomerName":"Sigmund","TotalAmount":808471},
{"Id":947,"CustomerName":"Cherey","TotalAmount":282375},
{"Id":948,"CustomerName":"Lyell","TotalAmount":854924},
{"Id":949,"CustomerName":"Gare","TotalAmount":93002},
{"Id":950,"CustomerName":"Germain","TotalAmount":961306},
{"Id":951,"CustomerName":"Brigid","TotalAmount":621728},
{"Id":952,"CustomerName":"Nat","TotalAmount":960657},
{"Id":953,"CustomerName":"Keith","TotalAmount":412957},
{"Id":954,"CustomerName":"Conrade","TotalAmount":585965},
{"Id":955,"CustomerName":"Tatiana","TotalAmount":404692},
{"Id":956,"CustomerName":"Veronique","TotalAmount":482609},
{"Id":957,"CustomerName":"Quentin","TotalAmount":933988},
{"Id":958,"CustomerName":"Ben","TotalAmount":721645},
{"Id":959,"CustomerName":"Maggi","TotalAmount":247485},
{"Id":960,"CustomerName":"Doralynne","TotalAmount":647892},
{"Id":961,"CustomerName":"Maureene","TotalAmount":911182},
{"Id":962,"CustomerName":"Gayelord","TotalAmount":443919},
{"Id":963,"CustomerName":"Alfi","TotalAmount":281813},
{"Id":964,"CustomerName":"Maybelle","TotalAmount":378690},
{"Id":965,"CustomerName":"Shena","TotalAmount":490329},
{"Id":966,"CustomerName":"Matilde","TotalAmount":421926},
{"Id":967,"CustomerName":"Oren","TotalAmount":462877},
{"Id":968,"CustomerName":"Wernher","TotalAmount":870718},
{"Id":969,"CustomerName":"Emmalynne","TotalAmount":582766},
{"Id":970,"CustomerName":"Leeanne","TotalAmount":928141},
{"Id":971,"CustomerName":"Sileas","TotalAmount":123127},
{"Id":972,"CustomerName":"Kirstyn","TotalAmount":141847},
{"Id":973,"CustomerName":"Henrieta","TotalAmount":623690},
{"Id":974,"CustomerName":"Leonardo","TotalAmount":477841},
{"Id":975,"CustomerName":"Kaycee","TotalAmount":146143},
{"Id":976,"CustomerName":"Celine","TotalAmount":232326},
{"Id":977,"CustomerName":"Nick","TotalAmount":75299},
{"Id":978,"CustomerName":"Riane","TotalAmount":222568},
{"Id":979,"CustomerName":"Winfield","TotalAmount":245592},
{"Id":980,"CustomerName":"Don","TotalAmount":235689},
{"Id":981,"CustomerName":"Farly","TotalAmount":653056},
{"Id":982,"CustomerName":"Krisha","TotalAmount":707638},
{"Id":983,"CustomerName":"Mortimer","TotalAmount":350836},
{"Id":984,"CustomerName":"Clerissa","TotalAmount":770038},
{"Id":985,"CustomerName":"Kesley","TotalAmount":80781},
{"Id":986,"CustomerName":"Gaylor","TotalAmount":653505},
{"Id":987,"CustomerName":"Roseann","TotalAmount":31947},
{"Id":988,"CustomerName":"Beth","TotalAmount":763059},
{"Id":989,"CustomerName":"Sebastien","TotalAmount":885841},
{"Id":990,"CustomerName":"Lizbeth","TotalAmount":153345},
{"Id":991,"CustomerName":"Vivian","TotalAmount":708599},
{"Id":992,"CustomerName":"Shadow","TotalAmount":317824},
{"Id":993,"CustomerName":"Reeba","TotalAmount":522243},
{"Id":994,"CustomerName":"Phaidra","TotalAmount":870160},
{"Id":995,"CustomerName":"Geri","TotalAmount":739224},
{"Id":996,"CustomerName":"Elisha","TotalAmount":425846},
{"Id":997,"CustomerName":"Elvin","TotalAmount":390657},
{"Id":998,"CustomerName":"Elisha","TotalAmount":74451},
{"Id":999,"CustomerName":"Lydon","TotalAmount":382479},
{"Id":1000,"CustomerName":"Chrotoem","TotalAmount":447841}]